{"failedCount":0,"prefixedPath":"classpath:examples\/users\/users.feature","packageQualifiedName":"examples.users.users","loopIndex":-1,"relativePath":"examples\/users\/users.feature","scenarioResults":[{"sectionIndex":0,"stepResults":[{"result":{"nanos":1606200,"millis":1.6062,"status":"passed"},"step":{"background":true,"line":4,"prefix":"*","index":0,"text":"url 'https:\/\/reqres.in\/api\/'"},"stepLog":"21:00:27.366 The Environment Is : qa \n"},{"result":{"nanos":891600,"millis":0.8916,"status":"passed"},"step":{"background":true,"line":5,"prefix":"*","index":1,"text":"header Accept = 'application\/json'"}},{"result":{"nanos":31424200,"millis":31.4242,"status":"passed"},"step":{"endLine":27,"background":true,"line":7,"prefix":"*","docString":"function(arg){\n    const arr1= [];\n    const arr2= [];\n    const arr3= [];\n    const arr4= [];\n    const arr5= [];\n    var i;\n    var j=0\n    for(i=0;i<arg.length;i++){\n                  arr1[i]= arg[i].id;\n                  arr2[i]= arg[i].email;\n                  arr3[i]= arg[i].first_name;\n                  arr4[i]= arg[i].last_name;\n                  arr5[i]= arg[i].avatar;\n                           \n    }\n    return [\"ID\",arr1,\"Email\",arr2,\"first_name\",arr3,\"last_name\",arr4,\"avatar\",arr5];\n}","index":2,"text":"def values ="}},{"result":{"nanos":1126900,"millis":1.1269,"status":"passed"},"step":{"line":31,"prefix":"Given","index":0,"text":"url 'https:\/\/reqres.in\/api\/users?page=2'"}},{"result":{"nanos":802824100,"millis":802.8241,"status":"passed"},"step":{"line":32,"prefix":"When","index":1,"text":"method GET"},"stepLog":"21:00:27.718 request:\n1 > GET https:\/\/reqres.in\/api\/users?page=2\n1 > Accept: application\/json\n1 > Host: reqres.in\n1 > Connection: Keep-Alive\n1 > User-Agent: Apache-HttpClient\/4.5.14 (Java\/17.0.5)\n1 > Accept-Encoding: gzip,deflate\n\n\n21:00:28.221 response time in milliseconds: 500\n1 < 200\n1 < Date: Wed, 18 Oct 2023 15:30:28 GMT\n1 < Content-Type: application\/json; charset=utf-8\n1 < Transfer-Encoding: chunked\n1 < Connection: keep-alive\n1 < Report-To: {\"group\":\"heroku-nel\",\"max_age\":3600,\"endpoints\":[{\"url\":\"https:\/\/nel.heroku.com\/reports?ts=1697274568&sid=c4c9725f-1ab0-44d8-820f-430df2718e11&s=L1%2FiaXaNpCUwc%2FC5E5gai9pjizrDkBCwMttdM5SUGmg%3D\"}]}\n1 < Reporting-Endpoints: heroku-nel=https:\/\/nel.heroku.com\/reports?ts=1697274568&sid=c4c9725f-1ab0-44d8-820f-430df2718e11&s=L1%2FiaXaNpCUwc%2FC5E5gai9pjizrDkBCwMttdM5SUGmg%3D\n1 < Nel: {\"report_to\":\"heroku-nel\",\"max_age\":3600,\"success_fraction\":0.005,\"failure_fraction\":0.05,\"response_headers\":[\"Via\"]}\n1 < X-Powered-By: Express\n1 < Access-Control-Allow-Origin: *\n1 < Etag: W\/\"406-ut0vzoCuidvyMf8arZpMpJ6ZRDw\"\n1 < Via: 1.1 vegur\n1 < Cache-Control: max-age=14400\n1 < CF-Cache-Status: HIT\n1 < Age: 2727\n1 < Vary: Accept-Encoding\n1 < Server: cloudflare\n1 < CF-RAY: 8181d29e0cd28805-SIN\n{\"page\":2,\"per_page\":6,\"total\":12,\"total_pages\":2,\"data\":[{\"id\":7,\"email\":\"michael.lawson@reqres.in\",\"first_name\":\"Michael\",\"last_name\":\"Lawson\",\"avatar\":\"https:\/\/reqres.in\/img\/faces\/7-image.jpg\"},{\"id\":8,\"email\":\"lindsay.ferguson@reqres.in\",\"first_name\":\"Lindsay\",\"last_name\":\"Ferguson\",\"avatar\":\"https:\/\/reqres.in\/img\/faces\/8-image.jpg\"},{\"id\":9,\"email\":\"tobias.funke@reqres.in\",\"first_name\":\"Tobias\",\"last_name\":\"Funke\",\"avatar\":\"https:\/\/reqres.in\/img\/faces\/9-image.jpg\"},{\"id\":10,\"email\":\"byron.fields@reqres.in\",\"first_name\":\"Byron\",\"last_name\":\"Fields\",\"avatar\":\"https:\/\/reqres.in\/img\/faces\/10-image.jpg\"},{\"id\":11,\"email\":\"george.edwards@reqres.in\",\"first_name\":\"George\",\"last_name\":\"Edwards\",\"avatar\":\"https:\/\/reqres.in\/img\/faces\/11-image.jpg\"},{\"id\":12,\"email\":\"rachel.howell@reqres.in\",\"first_name\":\"Rachel\",\"last_name\":\"Howell\",\"avatar\":\"https:\/\/reqres.in\/img\/faces\/12-image.jpg\"}],\"support\":{\"url\":\"https:\/\/reqres.in\/#support-heading\",\"text\":\"To keep ReqRes free, contributions towards server costs are appreciated!\"}}\n\n"},{"result":{"nanos":5334500,"millis":5.3345,"status":"passed"},"step":{"line":33,"prefix":"And","index":2,"text":"print response"},"stepLog":"21:00:28.229 [print] {\n  \"page\": 2,\n  \"per_page\": 6,\n  \"total\": 12,\n  \"total_pages\": 2,\n  \"data\": [\n    {\n      \"id\": 7,\n      \"email\": \"michael.lawson@reqres.in\",\n      \"first_name\": \"Michael\",\n      \"last_name\": \"Lawson\",\n      \"avatar\": \"https:\/\/reqres.in\/img\/faces\/7-image.jpg\"\n    },\n    {\n      \"id\": 8,\n      \"email\": \"lindsay.ferguson@reqres.in\",\n      \"first_name\": \"Lindsay\",\n      \"last_name\": \"Ferguson\",\n      \"avatar\": \"https:\/\/reqres.in\/img\/faces\/8-image.jpg\"\n    },\n    {\n      \"id\": 9,\n      \"email\": \"tobias.funke@reqres.in\",\n      \"first_name\": \"Tobias\",\n      \"last_name\": \"Funke\",\n      \"avatar\": \"https:\/\/reqres.in\/img\/faces\/9-image.jpg\"\n    },\n    {\n      \"id\": 10,\n      \"email\": \"byron.fields@reqres.in\",\n      \"first_name\": \"Byron\",\n      \"last_name\": \"Fields\",\n      \"avatar\": \"https:\/\/reqres.in\/img\/faces\/10-image.jpg\"\n    },\n    {\n      \"id\": 11,\n      \"email\": \"george.edwards@reqres.in\",\n      \"first_name\": \"George\",\n      \"last_name\": \"Edwards\",\n      \"avatar\": \"https:\/\/reqres.in\/img\/faces\/11-image.jpg\"\n    },\n    {\n      \"id\": 12,\n      \"email\": \"rachel.howell@reqres.in\",\n      \"first_name\": \"Rachel\",\n      \"last_name\": \"Howell\",\n      \"avatar\": \"https:\/\/reqres.in\/img\/faces\/12-image.jpg\"\n    }\n  ],\n  \"support\": {\n    \"url\": \"https:\/\/reqres.in\/#support-heading\",\n    \"text\": \"To keep ReqRes free, contributions towards server costs are appreciated!\"\n  }\n}\n \n"},{"result":{"nanos":37700,"millis":0.0377,"status":"passed"},"step":{"line":34,"prefix":"Then","index":3,"text":"status 200"}}],"line":38,"description":"","durationMillis":843.2452,"failed":false,"tags":["India"],"executorName":"pool-1-thread-5","name":"Automating \"Reqres\" Using GET Request Of Test Case ID - \"172468\"","startTime":1697643027287,"refId":"[1.1:38]","endTime":1697643028232,"exampleData":{"Name":"\"Reqres\"","ID":"\"172468\""},"exampleIndex":0}],"callDepth":0,"name":"Validation Of GET Requests","description":"","resultDate":"2023-10-18 09:00:29 pm","durationMillis":843.2452,"passedCount":1}